/home/citi/Labs/compactdisc/src/main/java/com/conygre/spring/boot/services/CompactDiscServiceImpl.java
/home/citi/Labs/compactdisc/src/main/java/com/conygre/spring/boot/services/CompactDiscService.java
/home/citi/Labs/compactdisc/src/main/java/com/conygre/spring/boot/AppConfig.java
/home/citi/Labs/compactdisc/src/main/java/com/conygre/spring/boot/SwaggerConfig.java
/home/citi/Labs/compactdisc/src/main/java/com/conygre/spring/boot/repos/CompactDiscRepository.java
/home/citi/Labs/compactdisc/src/main/java/com/conygre/spring/boot/entities/Track.java
/home/citi/Labs/compactdisc/src/main/java/com/conygre/spring/boot/rest/CompactDiscController.java
/home/citi/Labs/compactdisc/src/main/java/com/conygre/spring/boot/entities/CompactDisc.java
